program: decl_list:
  decl_list: decl: func:
    annotations: annotation_list: annotation:
      @
      extern
    expr: log_expr: comp_expr: add_expr: mul_expr: unary: primary: primary_no_call: void
    func_id: printf
    (
    param_list_opt: param_list:
      param_list: param:
        param_name: primary_no_call: var_use: fmt
        :
        param_type: primary_no_call: var_use: String
      ,
      param:
        param_name: primary_no_call: var_use: args
        :
        param_type:
          primary_no_call: var_use: Any
          ...
    )
    ;
  decl: func:
    annotations:
    expr: log_expr: comp_expr: add_expr: mul_expr: unary: primary: primary_no_call: int
    func_id: main
    (
    param_list_opt:
    )
    block:
      {
      stmt_list:
        stmt_list: stmt: call_stmt:
          call:
            var_use: printf
            tuple:
              (
              tuple_args:
                tuple_args: expr: log_expr: comp_expr: add_expr: mul_expr: unary: primary: primary_no_call: %s says hi\n
                ,
                expr: log_expr: comp_expr: add_expr: mul_expr: unary: primary: primary_no_call: summit
              )
          ;
        stmt: return:
          return
          expr: log_expr: comp_expr: add_expr: mul_expr: unary: primary: primary_no_call: num: 0
          ;
      }